1 10 20
100 200 125
201 210 89
900 1000 174
673 234 145
3 1123 179
452 467 129
1000 2500 209
1 10 20
100 200 125
201 210 89
900 1000 174
673 234 145
3 1123 179
452 467 129
1 9 20
1000 2500 209
123 456 144
5 1234 182
1 99 119
4 345 144
677 678 52
34 37 22
666 111 145
4 4 3
900 1000 174
1010 20202 279
9949 8392 260
567 1200 182
234 800 171
255 9000 262
1020 9999 262
9090 10000 260
129 4448 238
1235 77889 351
234 245 128
1902 8888 262
8723 12323 268
987 6789 262
284 7865 262
99 1122 179
5535 3 238
67 2300 183
4 8 17
40 90 116
389 209 144
87654 654328 509
1000 928372 525
500 500000 449
2 202020 383
111 12222 268
124 52523 324
900 900000 525
7384 276429 443
1283 12836 268
98976 986545 525
4 43 112
542 43 144
6 7 17
7 43 112
765 867 153
112 2223 183
464 392 134
2765 87 209
8765 76543 340
6536 4323 262
6543 543234 470
123 124567 354
14123 14 276
141 566 144
67876 56543 335
234 4567 238
6765 222 262
232323 566765 470
8346 4778 262
236 375 144
111 2222 182
333 567 142
222 45678 324
68 54 113
887 6678 262
865 765 153
654 76545 340
1100 2200 182
2030 40506 324
182 874 179
1029 3879 238
10 20 21
20 306 128
4 504 144
34 3434 217
345 678 145
333 44444 324
678 193 145
344 567 142
112 121212 354
129876 876 354
87654 32 351
632 23476 279
87528 87 351
78153 7 351
8 2 17
112 2 119
76 111 119
12 321 131
23123 432352 449
23424 43635 324
12315 35232 311
25678 1111 282
1276 1872 180
37132 2334 324
